{
    "swagger": "2.0",
    "info": {
        "description": "aitu",
        "title": "Mailing API",
        "contact": {
            "name": "aitu",
            "email": "abdarrakhman.akhmetgali@nu.edu.kz"
        },
        "license": {
            "name": "Apache 2.0",
            "url": "http://www.apache.org/licenses/LICENSE-2.0.html"
        },
        "version": "1.0"
    },
    "host": "localhost:5050",
    "paths": {
        "/mail": {
            "post": {
                "description": "Sends mail with From, To, Subject params",
                "parameters": [
                    {
                        "description": "Mail info",
                        "name": "mail-info",
                        "in": "body",
                        "required": true,
                        "schema": {
                            "$ref": "#/definitions/models.SendMailRequest"
                        }
                    }
                ],
                "responses": {
                    "201": {
                        "description": ""
                    },
                    "400": {
                        "description": "Bad Request",
                        "schema": {
                            "$ref": "#/definitions/models.ErrHandler"
                        }
                    },
                    "422": {
                        "description": "Unprocessable Entity",
                        "schema": {
                            "$ref": "#/definitions/models.ErrHandler"
                        }
                    },
                    "500": {
                        "description": "Internal Server Error",
                        "schema": {
                            "$ref": "#/definitions/models.ErrHandler"
                        }
                    }
                }
            }
        },
        "/ws/mail": {
            "post": {
                "parameters": [
                    {
                        "type": "string",
                        "description": "Email subscriber",
                        "name": "email",
                        "in": "query",
                        "required": true
                    }
                ],
                "responses": {}
            }
        }
    },
    "definitions": {
        "models.ErrHandler": {
            "type": "object",
            "properties": {
                "error": {
                    "type": "string"
                }
            }
        },
        "models.SendMailRequest": {
            "type": "object",
            "properties": {
                "data": {
                    "type": "string"
                },
                "from": {
                    "type": "string"
                },
                "password": {
                    "type": "string"
                },
                "subject": {
                    "type": "string"
                },
                "to": {
                    "type": "string"
                }
            }
        }
    }
}